{
  "project_info": {
    "project_number": "636728568646",
    "project_id": "fir-flutter-codelab-c284f",
    "storage_bucket": "fir-flutter-codelab-c284f.appspot.com"
  },
  "client": [
    {
      "client_info": {
        "mobilesdk_app_id": "1:636728568646:android:0aa21c691e7a82f73cd347",
        "android_client_info": {
          "package_name": "com.example.practica_firebase"
        }
      },
      "oauth_client": [
        {
          "client_id": "636728568646-e3q5umamvi6brvp9atnago8eca1juafj.apps.googleusercontent.com",
          "client_type": 3
        }
      ],
      "api_key": [
        {
          "current_key": "AIzaSyDH7oUcF1TUK6a-W6ksQv1aSIKzUfaRZ9g"
        }
      ],
      "services": {
        "appinvite_service": {
          "other_platform_oauth_client": [
            {
              "client_id": "636728568646-e3q5umamvi6brvp9atnago8eca1juafj.apps.googleusercontent.com",
              "client_type": 3
            }
          ]
        }
      }
    }
  ],
  "configuration_version": "1"
}